…
For classification: A
[`tbl`](https://tibble.tidyverse.org/reference/tibble.html) with one
column for each level in `y` containing class probabilities if
`type = "prob"`. For `type = "class"`, one column `.pred` with class
predictions is returned. For `type = "numeric"` or `"link"`, one column
`.pred` with raw predictions.

## Examples

``` r
# Regression with L2 loss
rpfit <- rpf(y = mtcars$mpg, x = mtcars[, c("cyl", "wt")])
predict(rpfit, mtcars[, c("cyl", "wt")])
#> # A tibble: 32 × 1
#>    .pred
#>    <dbl>
#>  1  20.7
#>  2  20.3
#>  3  25.2
#>  4  21.2
#>  5  17.1
#>  6  18.6
#>  7  15.1
#>  8  24.1
#>  9  23.0
#> 10  19.4
#> # ℹ 22 more rows
```
